{
  "project_info": {
    "project_number": "175562589230",
    "firebase_url": "https://authapp-af9fa.firebaseio.com",
    "project_id": "authapp-af9fa",
    "storage_bucket": "authapp-af9fa.appspot.com"
  },
  "client": [
    {
      "client_info": {
        "mobilesdk_app_id": "1:175562589230:android:e7fd266bf3bfdc2c",
        "android_client_info": {
          "package_name": "todesser.authapp"
        }
      },
      "oauth_client": [
        {
          "client_id": "175562589230-gb8pk9qvtbfva07n2dgd0j44muo26btv.apps.googleusercontent.com",
          "client_type": 1,
          "android_info": {
            "package_name": "todesser.authapp",
            "certificate_hash": "3aa7d7912a2d08a2206b0f374d10bb3a97e39339"
          }
        },
        {
          "client_id": "175562589230-qolc91h3qcn48he4a52pefnehqjhvj8v.apps.googleusercontent.com",
          "client_type": 3
        }
      ],
      "api_key": [
        {
          "current_key": "AIzaSyAyI4jxBZjrgHmFN7SQ7mCW7xsNF3AeBF0"
        }
      ],
      "services": {
        "analytics_service": {
          "status": 1
        },
        "appinvite_service": {
          "status": 2,
          "other_platform_oauth_client": [
            {
              "client_id": "175562589230-qolc91h3qcn48he4a52pefnehqjhvj8v.apps.googleusercontent.com",
              "client_type": 3
            }
          ]
        },
        "ads_service": {
          "status": 2
        }
      }
    }
  ],
  "configuration_version": "1"
}